/home/bianca/Proiecte/proiect_bianca_botezatu/src/main/java/page_objects/HeaderPage.java
/home/bianca/Proiecte/proiect_bianca_botezatu/src/main/java/page_objects/CategoryOnePage.java
/home/bianca/Proiecte/proiect_bianca_botezatu/src/main/java/page_objects/Application.java
/home/bianca/Proiecte/proiect_bianca_botezatu/src/main/java/page_objects/LoginPageFE.java
/home/bianca/Proiecte/proiect_bianca_botezatu/src/main/java/page_objects/RegisterPage.java
