/home/bianca/Proiecte/proiect_bianca_botezatu/src/test/java/PositiveLoginTests.java
/home/bianca/Proiecte/proiect_bianca_botezatu/src/test/java/PositiveCategoryOnePageTests.java
/home/bianca/Proiecte/proiect_bianca_botezatu/src/test/java/HeaderPositiveTests.java
/home/bianca/Proiecte/proiect_bianca_botezatu/src/test/java/utils/BaseClass.java
/home/bianca/Proiecte/proiect_bianca_botezatu/src/test/java/NegativeRegisterTests.java
/home/bianca/Proiecte/proiect_bianca_botezatu/src/test/java/PositiveRegisterTests.java
/home/bianca/Proiecte/proiect_bianca_botezatu/src/test/java/NegativeLoginTests.java
